Base path: 'D:/Zenbook Laptop/Game Dev Programs/2020.2.2f1/Editor/Data', plugins path 'D:/Zenbook Laptop/Game Dev Programs/2020.2.2f1/Editor/Data/PlaybackEngines'
Cmd: initializeCompiler
Cmd: shutdown
