%YAML 1.1
%TAG !u! tag:unity3d.com,2011:
--- !u!1 &8397418048604020427
GameObject:
  m_ObjectHideFlags: 0
  m_CorrespondingSourceObject: {fileID: 0}
  m_PrefabInstance: {fileID: 0}
  m_PrefabAsset: {fileID: 0}
  serializedVersion: 6
  m_Component:
  - component: {fileID: 8397418048603587307}
  - component: {fileID: 8397418048600720079}
  - component: {fileID: 8397418048601817103}
  m_Layer: 0
  m_Name: 45ACP Casing
  m_TagString: Untagged
  m_Icon: {fileID: 0}
  m_NavMeshLayer: 0
  m_StaticEditorFlags: 0
  m_IsActive: 1
--- !u!4 &8397418048603587307
Transform:
  m_ObjectHideFlags: 0
  m_CorrespondingSourceObject: {fileID: 0}
  m_PrefabInstance: {fileID: 0}
  m_PrefabAsset: {fileID: 0}
  m_GameObject: {fileID: 8397418048604020427}
  m_LocalRotation: {x: -0, y: -0, z: -0, w: 1}
  m_LocalPosition: {x: 0, y: 0, z: 0}
  m_LocalScale: {x: 1, y: 1, z: 1}
  m_Children: []
  m_Father: {fileID: 8698172140991394757}
  m_RootOrder: 0
  m_LocalEulerAnglesHint: {x: 0, y: 0, z: 0}
--- !u!33 &8397418048600720079
MeshFilter:
  m_ObjectHideFlags: 0
  m_CorrespondingSourceObject: {fileID: 0}
  m_PrefabInstance: {fileID: 0}
  m_PrefabAsset: {fileID: 0}
  m_GameObject: {fileID: 8397418048604020427}
  m_Mesh: {fileID: 4300000, guid: 1319cfeb42068a446bc5d43ef1562670, type: 3}
--- !u!23 &8397418048601817103
MeshRenderer:
  m_ObjectHideFlags: 0
  m_CorrespondingSourceObject: {fileID: 0}
  m_PrefabInstance: {fileID: 0}
  m_PrefabAsset: {fileID: 0}
  m_GameObject: {fileID: 8397418048604020427}
  m_Enabled: 1
  m_CastShadows: 1
  m_ReceiveShadows: 1
  m_DynamicOccludee: 1
  m_MotionVectors: 1
  m_LightProbeUsage: 1
  m_ReflectionProbeUsage: 1
  m_RayTracingMode: 2
  m_RayTraceProcedural: 0
  m_RenderingLayerMask: 1
  m_RendererPriority: 0
  m_Materials:
  - {fileID: 2100000, guid: 4b40dbb00777f2141a8ff7278f450856, type: 2}
  m_StaticBatchInfo:
    firstSubMesh: 0
    subMeshCount: 0
  m_StaticBatchRoot: {fileID: 0}
  m_ProbeAnchor: {fileID: 0}
  m_LightProbeVolumeOverride: {fileID: 0}
  m_ScaleInLightmap: 1
  m_ReceiveGI: 1
  m_PreserveUVs: 0
  m_IgnoreNormalsForChartDetection: 0
  m_ImportantGI: 0
  m_StitchLightmapSeams: 0
  m_SelectedEditorRenderState: 3
  m_MinimumChartSize: 4
  m_AutoUVMaxDistance: 0.5
  m_AutoUVMaxAngle: 89
  m_LightmapParameters: {fileID: 0}
  m_SortingLayerID: 0
  m_SortingLayer: 0
  m_SortingOrder: 0
  m_AdditionalVertexStreams: {fileID: 0}
--- !u!1001 &1064535522211975263
PrefabInstance:
  m_ObjectHideFlags: 0
  serializedVersion: 2
  m_Modification:
    m_TransformParent: {fileID: 0}
    m_Modifications:
    - target: {fileID: 3625037896966406280, guid: a737d62f4ff0b854a9d767507f039686,
        type: 3}
      propertyPath: m_Name
      value: 45ACP Bullet_Casing
      objectReference: {fileID: 0}
    - target: {fileID: 8403992145370945202, guid: a737d62f4ff0b854a9d767507f039686,
        type: 3}
      propertyPath: m_CollisionDetection
      value: 2
      objectReference: {fileID: 0}
    - target: {fileID: 8535412081993147290, guid: a737d62f4ff0b854a9d767507f039686,
        type: 3}
      propertyPath: m_RootOrder
      value: 0
      objectReference: {fileID: 0}
    - target: {fileID: 8535412081993147290, guid: a737d62f4ff0b854a9d767507f039686,
        type: 3}
      propertyPath: m_LocalPosition.x
      value: 0
      objectReference: {fileID: 0}
    - target: {fileID: 8535412081993147290, guid: a737d62f4ff0b854a9d767507f039686,
        type: 3}
      propertyPath: m_LocalPosition.y
      value: 0
      objectReference: {fileID: 0}
    - target: {fileID: 8535412081993147290, guid: a737d62f4ff0b854a9d767507f039686,
        type: 3}
      propertyPath: m_LocalPosition.z
      value: 0
      objectReference: {fileID: 0}
    - target: {fileID: 8535412081993147290, guid: a737d62f4ff0b854a9d767507f039686,
        type: 3}
      propertyPath: m_LocalRotation.w
      value: 1
      objectReference: {fileID: 0}
    - target: {fileID: 8535412081993147290, guid: a737d62f4ff0b854a9d767507f039686,
        type: 3}
      propertyPath: m_LocalRotation.x
      value: -0
      objectReference: {fileID: 0}
    - target: {fileID: 8535412081993147290, guid: a737d62f4ff0b854a9d767507f039686,
        type: 3}
      propertyPath: m_LocalRotation.y
      value: -0
      objectReference: {fileID: 0}
    - target: {fileID: 8535412081993147290, guid: a737d62f4ff0b854a9d767507f039686,
        type: 3}
      propertyPath: m_LocalRotation.z
      value: -0
      objectReference: {fileID: 0}
    - target: {fileID: 8535412081993147290, guid: a737d62f4ff0b854a9d767507f039686,
        type: 3}
      propertyPath: m_LocalEulerAnglesHint.x
      value: 0
      objectReference: {fileID: 0}
    - target: {fileID: 8535412081993147290, guid: a737d62f4ff0b854a9d767507f039686,
        type: 3}
      propertyPath: m_LocalEulerAnglesHint.y
      value: 0
      objectReference: {fileID: 0}
    - target: {fileID: 8535412081993147290, guid: a737d62f4ff0b854a9d767507f039686,
        type: 3}
      propertyPath: m_LocalEulerAnglesHint.z
      value: 0
      objectReference: {fileID: 0}
    m_RemovedComponents:
    - {fileID: 8403992145370945202, guid: a737d62f4ff0b854a9d767507f039686, type: 3}
    - {fileID: 9100654289512178833, guid: a737d62f4ff0b854a9d767507f039686, type: 3}
  m_SourcePrefab: {fileID: 100100000, guid: a737d62f4ff0b854a9d767507f039686, type: 3}
--- !u!4 &8698172140991394757 stripped
Transform:
  m_CorrespondingSourceObject: {fileID: 8535412081993147290, guid: a737d62f4ff0b854a9d767507f039686,
    type: 3}
  m_PrefabInstance: {fileID: 1064535522211975263}
  m_PrefabAsset: {fileID: 0}
